<?xml version="1.0" encoding="UTF-8"?>
<svg version="1.1" xmlns="http://www.w3.org/2000/svg" viewBox="0 0 5 3"
  preserveAspectRatio="none">
  <polygon points="0 3 5 3 5 0 0 3" fill="#f5f5f5"/>
</svg>
